{"meta": {"limit": 20,
          "next": "/api/specify/recordsetitem/?recordset=1&offset=20&limit=20&format=json",
          "offset": 0,
          "previous": null,
          "total_count": 380},
 "objects": [{"id": "1",
              "recordid": 100,
              "recordset": "/api/specify/recordset/1/",
              "resource_uri": "/api/specify/recordsetitem/1/"},
             {"id": "2",
              "recordid": 100,
              "recordset": "/api/specify/recordset/1/",
              "resource_uri": "/api/specify/recordsetitem/2/"},
             {"id": "3",
              "recordid": 100,
              "recordset": "/api/specify/recordset/1/",
              "resource_uri": "/api/specify/recordsetitem/3/"},
             {"id": "4",
              "recordid": 100,
              "recordset": "/api/specify/recordset/1/",
              "resource_uri": "/api/specify/recordsetitem/4/"},
             {"id": "5",
              "recordid": 100,
              "recordset": "/api/specify/recordset/1/",
              "resource_uri": "/api/specify/recordsetitem/5/"},
             {"id": "6",
              "recordid": 100,
              "recordset": "/api/specify/recordset/1/",
              "resource_uri": "/api/specify/recordsetitem/6/"},
             {"id": "7",
              "recordid": 100,
              "recordset": "/api/specify/recordset/1/",
              "resource_uri": "/api/specify/recordsetitem/7/"},
             {"id": "8",
              "recordid": 100,
              "recordset": "/api/specify/recordset/1/",
              "resource_uri": "/api/specify/recordsetitem/8/"},
             {"id": "9",
              "recordid": 100,
              "recordset": "/api/specify/recordset/1/",
              "resource_uri": "/api/specify/recordsetitem/9/"},
             {"id": "10",
              "recordid": 100,
              "recordset": "/api/specify/recordset/1/",
              "resource_uri": "/api/specify/recordsetitem/10/"},
             {"id": "11",
              "recordid": 100,
              "recordset": "/api/specify/recordset/1/",
              "resource_uri": "/api/specify/recordsetitem/11/"},
             {"id": "12",
              "recordid": 100,
              "recordset": "/api/specify/recordset/1/",
              "resource_uri": "/api/specify/recordsetitem/12/"},
             {"id": "13",
              "recordid": 100,
              "recordset": "/api/specify/recordset/1/",
              "resource_uri": "/api/specify/recordsetitem/13/"},
             {"id": "14",
              "recordid": 100,
              "recordset": "/api/specify/recordset/1/",
              "resource_uri": "/api/specify/recordsetitem/14/"},
             {"id": "15",
              "recordid": 100,
              "recordset": "/api/specify/recordset/1/",
              "resource_uri": "/api/specify/recordsetitem/15/"},
             {"id": "16",
              "recordid": 100,
              "recordset": "/api/specify/recordset/1/",
              "resource_uri": "/api/specify/recordsetitem/16/"},
             {"id": "17",
              "recordid": 100,
              "recordset": "/api/specify/recordset/1/",
              "resource_uri": "/api/specify/recordsetitem/17/"},
             {"id": "18",
              "recordid": 100,
              "recordset": "/api/specify/recordset/1/",
              "resource_uri": "/api/specify/recordsetitem/18/"},
             {"id": "19",
              "recordid": 100,
              "recordset": "/api/specify/recordset/1/",
              "resource_uri": "/api/specify/recordsetitem/19/"},
             {"id": "20",
              "recordid": 100,
              "recordset": "/api/specify/recordset/1/",
              "resource_uri": "/api/specify/recordsetitem/20/"}]}